{
  "css/chat_box.css": "css/chat_box-cfe140e341.css",
  "css/footer.css": "css/footer-80b8801692.css",
  "css/header.css": "css/header-5624c7deef.css",
  "css/home.css": "css/home-6f966a491d.css",
  "css/layout.css": "css/layout-43e5d0f990.css",
  "css/user_profile.css": "css/user_profile-bf94b0b59a.css",
  "js/chat_engine.js": "js/chat_engine-f627f02098.js",
  "js/home_post_comments.js": "js/home_post_comments-1dbdcead12.js",
  "js/home_posts.js": "js/home_posts-5b6c172334.js",
  "js/toggle_likes.js": "js/toggle_likes-a1b81230c0.js"
}